TPU4_4_RES.vcd
$date
	Wed Jun 23 14:03:57 2021
$end
$version
	GTKWave Analyzer v3.3.107 (w)1999-2020 BSI
$end
$timescale
	1ns
$end
$scope module tpu_tb $end
$scope module T1 $end
$scope module genblk1[1] $end
$scope module PEij[1] $end
$scope module macij $end
$var wire 24 * si[23:0] $end
$var wire 8 ) wi[7:0] $end
$var wire 24 - soReg_input[23:0] $end
$var wire 24 . so[23:0] $end
$var wire 8 ( di[7:0] $end
$var reg 8 + diReg[7:0] $end
$var reg 8 , wiReg[7:0] $end
$upscope $end
$upscope $end
$upscope $end
$scope module genblk1[4] $end
$scope module PEij[1] $end
$scope module macij $end
$var wire 8 E wi[7:0] $end
$var reg 8 G diReg[7:0] $end
$upscope $end
$upscope $end
$scope module PEij[3] $end
$scope module macij $end
$var wire 1 C clk $end
$upscope $end
$upscope $end
$upscope $end
$scope module genblk1[2] $end
$scope module PEij[1] $end
$scope module macij $end
$var reg 8 d wiReg[7:0] $end
$var reg 8 c diReg[7:0] $end
$var wire 24 f so[23:0] $end
$var wire 24 e soReg_input[23:0] $end
$upscope $end
$upscope $end
$upscope $end
$scope module genblk1[4] $end
$scope module PEij[1] $end
$scope module macij $end
$var wire 8 D di[7:0] $end
$upscope $end
$upscope $end
$upscope $end
$scope module genblk1[2] $end
$scope module PEij[1] $end
$scope module macij $end
$var wire 8 a wi[7:0] $end
$upscope $end
$upscope $end
$upscope $end
$scope module genblk1[4] $end
$scope module PEij[2] $end
$scope module macij $end
$var wire 24 Q so[23:0] $end
$var reg 8 N diReg[7:0] $end
$var reg 8 O wiReg[7:0] $end
$upscope $end
$upscope $end
$upscope $end
$scope module genblk1[2] $end
$scope module PEij[1] $end
$scope module macij $end
$var wire 24 b si[23:0] $end
$var wire 1 _ clk $end
$var wire 8 ` di[7:0] $end
$upscope $end
$upscope $end
$upscope $end
$scope module genblk1[1] $end
$scope module PEij[4] $end
$scope module macij $end
$var reg 8 @ diReg[7:0] $end
$var wire 8 = di[7:0] $end
$upscope $end
$upscope $end
$upscope $end
$scope module genblk1[4] $end
$scope module PEij[2] $end
$scope module macij $end
$var wire 8 L wi[7:0] $end
$var wire 24 P soReg_input[23:0] $end
$upscope $end
$upscope $end
$upscope $end
$scope module genblk1[1] $end
$scope module PEij[4] $end
$scope module macij $end
$var wire 24 $ so[23:0] $end
$var wire 24 B soReg_input[23:0] $end
$upscope $end
$upscope $end
$upscope $end
$scope module genblk1[4] $end
$scope module PEij[4] $end
$scope module macij $end
$var wire 1 " clk $end
$upscope $end
$upscope $end
$upscope $end
$scope module genblk1[1] $end
$scope module PEij[4] $end
$scope module macij $end
$var wire 8 > wi[7:0] $end
$var wire 24 ? si[23:0] $end
$upscope $end
$upscope $end
$upscope $end
$scope module genblk1[4] $end
$scope module PEij[3] $end
$scope module macij $end
$var wire 8 R di[7:0] $end
$upscope $end
$upscope $end
$scope module PEij[4] $end
$scope module macij $end
$var reg 8 ] wiReg[7:0] $end
$var wire 8 Y di[7:0] $end
$var wire 1 # rst $end
$upscope $end
$upscope $end
$upscope $end
$scope module genblk1[1] $end
$scope module PEij[4] $end
$scope module macij $end
$var reg 8 A wiReg[7:0] $end
$upscope $end
$upscope $end
$scope module PEij[3] $end
$scope module macij $end
$var reg 8 : wiReg[7:0] $end
$var reg 8 9 diReg[7:0] $end
$var wire 8 6 di[7:0] $end
$var wire 24 < so[23:0] $end
$var wire 24 ; soReg_input[23:0] $end
$var wire 8 7 wi[7:0] $end
$var wire 24 8 si[23:0] $end
$upscope $end
$upscope $end
$upscope $end
$scope module genblk1[2] $end
$scope module PEij[4] $end
$scope module macij $end
$var wire 24 % so[23:0] $end
$upscope $end
$upscope $end
$upscope $end
$scope module genblk1[4] $end
$scope module PEij[1] $end
$scope module macij $end
$var wire 24 F si[23:0] $end
$var wire 24 I soReg_input[23:0] $end
$var wire 24 J so[23:0] $end
$upscope $end
$upscope $end
$scope module PEij[2] $end
$scope module macij $end
$var wire 8 K di[7:0] $end
$upscope $end
$upscope $end
$upscope $end
$scope module genblk1[1] $end
$scope module PEij[2] $end
$scope module macij $end
$var reg 8 3 wiReg[7:0] $end
$var reg 24 4 soReg[23:0] $end
$var reg 8 2 diReg[7:0] $end
$var wire 8 / di[7:0] $end
$var wire 24 5 so[23:0] $end
$upscope $end
$upscope $end
$upscope $end
$scope module genblk1[4] $end
$scope module PEij[3] $end
$scope module macij $end
$var wire 24 X so[23:0] $end
$var reg 8 U diReg[7:0] $end
$var reg 8 V wiReg[7:0] $end
$upscope $end
$upscope $end
$upscope $end
$scope module genblk1[1] $end
$scope module PEij[2] $end
$scope module macij $end
$var wire 8 0 wi[7:0] $end
$upscope $end
$upscope $end
$upscope $end
$scope module genblk1[4] $end
$scope module PEij[4] $end
$scope module macij $end
$var wire 24 ' so[23:0] $end
$var reg 8 \ diReg[7:0] $end
$upscope $end
$upscope $end
$scope module PEij[3] $end
$scope module macij $end
$var wire 8 S wi[7:0] $end
$var wire 24 W soReg_input[23:0] $end
$upscope $end
$upscope $end
$scope module PEij[2] $end
$scope module macij $end
$var wire 24 M si[23:0] $end
$upscope $end
$upscope $end
$upscope $end
$scope module genblk1[1] $end
$scope module PEij[2] $end
$scope module macij $end
$var wire 24 1 si[23:0] $end
$upscope $end
$upscope $end
$upscope $end
$scope module genblk1[4] $end
$scope module PEij[4] $end
$scope module macij $end
$var wire 24 [ si[23:0] $end
$var wire 8 Z wi[7:0] $end
$var wire 24 ^ soReg_input[23:0] $end
$upscope $end
$upscope $end
$scope module PEij[1] $end
$scope module macij $end
$var reg 8 H wiReg[7:0] $end
$upscope $end
$upscope $end
$upscope $end
$scope module genblk1[3] $end
$scope module PEij[4] $end
$scope module macij $end
$var wire 24 & so[23:0] $end
$upscope $end
$upscope $end
$upscope $end
$scope module genblk1[4] $end
$scope module PEij[3] $end
$scope module macij $end
$var wire 24 T si[23:0] $end
$upscope $end
$upscope $end
$upscope $end
$upscope $end
$upscope $end
$enddefinitions $end
#0
$dumpvars
b0 1
b0 I
b0 O
b0 Y
b0 [
b0 .
b0 *
bx )
b0 R
bx E
bx a
b0 Q
b0 ^
b0 Z
b0 ]
b0 H
b0 :
1#
b0 &
b0 T
b0 A
b0 G
b0 N
b0 @
b0 ;
bx (
b0 9
bx 6
b0 <
0C
b0 b
b0 F
b0 8
0_
b0 7
b0 %
b0 d
b0 `
b0 M
b0 $
b0 3
b0 +
b0 J
b0 -
b0 K
b0 c
bx =
b0 5
b0 2
b0 L
b0 4
bx /
b0 f
b0 P
b0 ?
b0 0
b0 ,
b0 X
b0 U
b0 V
b0 e
b0 B
b0 W
b0 \
0"
b0 '
b0 S
b0 D
b0 >
$end
#17
1C
1_
1"
#34
0"
0C
0_
#50
b1 E
b1 )
b1 a
0#
b11 6
b1 (
b10 /
b100 =
#51
1_
1"
b1 H
b100 @
b11 9
b1 d
b1 -
b1 `
b1 +
1C
b1 L
b10 2
b1 0
b1 ,
#68
0_
0"
0C
#85
1C
1_
b1 O
b1 1
b1 .
b1 7
1"
b1 3
b1 c
b1 S
b1 e
#102
0_
0C
0"
#119
1"
1_
b100 Y
b11 R
b1 Z
b1 :
b110 ;
b1 >
b11 8
1C
b10 K
b11 4
b11 5
b1 f
b1 D
b1 V
#136
0"
0_
0C
#153
1C
1"
b1 I
b100 ^
b1 A
b1 ]
b1 G
b10 N
b110 <
1_
b110 ?
b10 P
b11 U
b1010 B
b11 W
b100 \
#170
0"
0C
0_
#187
1_
1"
b11 [
b111 ^
b10 Q
b10 T
b111 &
b1001 %
1C
b1010 $
b1 M
b1 J
b101 W
b11 X
b11 P
b100 '
#204
0"
0_
0C
#221
1C
1"
b111 '
b1001 &
b11 Q
b1001 ^
b101 [
b11 T
1_
b1010 %
b101 X
b110 W
#238
0"
0C
0_
#255
1_
1"
b110 [
b1010 &
b1001 '
b1010 ^
1C
b110 X
#272
0"
0_
0C
#289
1C
1"
b1010 '
1_
